<svg xmlns="http://www.w3.org/2000/svg" width="30.875" height="31.812" viewBox="0 0 15.438 15.906">
  <defs>
    <style>
      .cls-1 {
        fill: #333;
        fill-rule: evenodd;
      }
    </style>
  </defs>
  <path id="_200_common_icon-home.svg" data-name="200% common/icon-home.svg" class="cls-1" d="M36.78,510H22.4a0.518,0.518,0,0,1-.523-0.513v-8.935a0.508,0.508,0,0,1,.186-0.392l7.189-5.957a0.531,0.531,0,0,1,.674,0l7.19,5.957a0.509,0.509,0,0,1,.185.392v8.935A0.518,0.518,0,0,1,36.78,510Zm-13.856-1.026H36.258v-8.184l-6.667-5.524-6.667,5.524v8.184Zm4.63-6.243h1.6V504.3h-1.6v-1.567Zm2.476,0h1.6V504.3h-1.6v-1.567ZM27.554,505.2h1.6v1.567h-1.6V505.2Zm2.476,0h1.6v1.567h-1.6V505.2Z" transform="translate(-21.875 -494.094)"/>
</svg>
