<svg xmlns="http://www.w3.org/2000/svg" width="28.06" height="28.062" viewBox="0 0 14.03 14.031">
  <defs>
    <style>
      .cls-1 {
        fill: #48cb00;
        fill-rule: evenodd;
      }
    </style>
  </defs>
  <path id="_200_icon-check-on.svg" data-name="200% icon-check-on.svg" class="cls-1" d="M1856.2,858.32a0.767,0.767,0,0,1-.55-0.229l-1.56-1.56a0.779,0.779,0,1,1,1.1-1.1l1.01,1.009,2.57-2.569a0.779,0.779,0,1,1,1.1,1.1l-3.12,3.12A0.767,0.767,0,0,1,1856.2,858.32Zm0.78,4.68a7.021,7.021,0,1,1,7.02-7.02A7.028,7.028,0,0,1,1856.98,863Zm0-12.48a5.46,5.46,0,1,0,5.46,5.46A5.466,5.466,0,0,0,1856.98,850.52Z" transform="translate(-1849.97 -848.969)"/>
</svg>
