<svg xmlns="http://www.w3.org/2000/svg" width="27.062" height="27.062" viewBox="0 0 13.531 13.531">
  <defs>
    <style>
      .cls-1 {
        fill: #204e87;
        fill-rule: evenodd;
      }
    </style>
  </defs>
  <path id="_200_icon-add.svg" data-name="200% icon-add.svg" class="cls-1" d="M593.232,509A6.768,6.768,0,1,1,600,502.232,6.776,6.776,0,0,1,593.232,509Zm0-12.032a5.264,5.264,0,1,0,5.264,5.264A5.269,5.269,0,0,0,593.232,496.968Zm2.256,4.512h-1.5v-1.5a0.752,0.752,0,0,0-1.5,0v1.5h-1.5a0.752,0.752,0,1,0,0,1.5h1.5v1.5a0.752,0.752,0,0,0,1.5,0v-1.5h1.5A0.752,0.752,0,0,0,595.488,501.48Z" transform="translate(-586.469 -495.469)"/>
</svg>
